{
  "user": [
    {
      "id": 1,
      "name": "roy",
      "location": "india"
    },
    {
      "id": 2,
      "name": "sam",
      "location": "wales"
    },
    {
      "name": "ii",
      "location": "la",
      "id": 7
    },
    {
      "name": "Shona",
      "location": "LA",
      "id": 8
    },
    {
      "name": "Shona",
      "location": "LA",
      "id": 9
    }
  ]
}

